\relax 
\providecommand\hyper@newdestlabel[2]{}
\providecommand\HyperFirstAtBeginDocument{\AtBeginDocument}
\HyperFirstAtBeginDocument{\ifx\hyper@anchor\@undefined
\global\let\oldcontentsline\contentsline
\gdef\contentsline#1#2#3#4{\oldcontentsline{#1}{#2}{#3}}
\global\let\oldnewlabel\newlabel
\gdef\newlabel#1#2{\newlabelxx{#1}#2}
\gdef\newlabelxx#1#2#3#4#5#6{\oldnewlabel{#1}{{#2}{#3}}}
\AtEndDocument{\ifx\hyper@anchor\@undefined
\let\contentsline\oldcontentsline
\let\newlabel\oldnewlabel
\fi}
\fi}
\global\let\hyper@last\relax 
\gdef\HyperFirstAtBeginDocument#1{#1}
\providecommand\HyField@AuxAddToFields[1]{}
\providecommand\HyField@AuxAddToCoFields[2]{}
\citation{ballesteros2017review}
\citation{amin2016radar}
\citation{kwolek2015improving,pierleoni2015high}
\citation{chen2010indoor,ruan2015tagfall}
\citation{cao2012falld,abbate2012smartphone}
\citation{tian2018rf,palipana2018falldefi,wang2016wifall,wang2016rt}
\citation{gadde2014fall,rivera2014radar,amin2016radar}
\citation{lee2005intelligent,stone2014fall,bian2014fall}
\citation{li2012microphone,shaukat2014daily,popescu2009acoustic}
\citation{tiwari2010mfcc}
\citation{gadde2014fall,rivera2014radar,amin2016radar}
\@writefile{toc}{\contentsline {section}{Abstract}{1}{section*.1}\protected@file@percent }
\@writefile{toc}{\contentsline {section}{\numberline {1}Introduction}{1}{section.1}\protected@file@percent }
\citation{kwolek2015improving,pierleoni2015high}
\citation{cao2012falld,abbate2012smartphone}
\citation{chen2010indoor,ruan2015tagfall}
\citation{zhang2006fall}
\@writefile{toc}{\contentsline {section}{\numberline {2}RELATED WORK}{2}{section.2}\protected@file@percent }
\newlabel{sec:related}{{2}{2}{RELATED WORK}{section.2}{}}
\@writefile{toc}{\contentsline {subsection}{\numberline {2.1}Fall Detection}{2}{subsection.2.1}\protected@file@percent }
\citation{lee2005intelligent,stone2014fall,bian2014fall}
\citation{gadde2014fall,rivera2014radar,amin2016radar}
\citation{popescu2009acoustic,li2012microphone,shaukat2014daily}
\citation{mager2013fall,kianoush2016device,huang2014zigbee}
\citation{tian2018rf,palipana2018falldefi,wang2016wifall,wang2016rt}
\citation{wang2016wifall}
\citation{wang2016rt}
\citation{palipana2018falldefi}
\citation{yun2015turning,mao2016cat,zhang2017soundtrak,wang2019millisonic}
\citation{gupta2012soundwave,ruan2016audiogest,wang2020push}
\citation{nandakumar2016fingerio,wang2016device,sun2018vskin}
\citation{mao2019rnn}
\citation{nandakumar2017covertband}
\citation{xu2019acousticid,altaf2015acoustic,wang2018gait}
\@writefile{toc}{\contentsline {subsection}{\numberline {2.2}Acoustic Sensing}{3}{subsection.2.2}\protected@file@percent }
\providecommand*\caption@xref[2]{\@setref\relax\@undefined{#1}}
\newlabel{fall_s}{{1(a)}{4}{Subfigure 1(a)}{subfigure.1.1}{}}
\newlabel{sub@fall_s}{{(a)}{4}{Subfigure 1(a)\relax }{subfigure.1.1}{}}
\newlabel{sit_s}{{1(b)}{4}{Subfigure 1(b)}{subfigure.1.2}{}}
\newlabel{sub@sit_s}{{(b)}{4}{Subfigure 1(b)\relax }{subfigure.1.2}{}}
\newlabel{standup_s}{{1(c)}{4}{Subfigure 1(c)}{subfigure.1.3}{}}
\newlabel{sub@standup_s}{{(c)}{4}{Subfigure 1(c)\relax }{subfigure.1.3}{}}
\newlabel{jump_s}{{1(d)}{4}{Subfigure 1(d)}{subfigure.1.4}{}}
\newlabel{sub@jump_s}{{(d)}{4}{Subfigure 1(d)\relax }{subfigure.1.4}{}}
\@writefile{lof}{\contentsline {figure}{\numberline {1}{\ignorespaces Spectrogram of different activity\relax }}{4}{figure.caption.2}\protected@file@percent }
\newlabel{Spectrograms}{{1}{4}{Spectrogram of different activity\relax }{figure.caption.2}{}}
\@writefile{lof}{\contentsline {subfigure}{\numberline{(a)}{\ignorespaces {Fall}}}{4}{figure.caption.2}\protected@file@percent }
\@writefile{lof}{\contentsline {subfigure}{\numberline{(b)}{\ignorespaces {Sitting down}}}{4}{figure.caption.2}\protected@file@percent }
\@writefile{lof}{\contentsline {subfigure}{\numberline{(c)}{\ignorespaces {Standing up}}}{4}{figure.caption.2}\protected@file@percent }
\@writefile{lof}{\contentsline {subfigure}{\numberline{(d)}{\ignorespaces {Jumping}}}{4}{figure.caption.2}\protected@file@percent }
\@writefile{toc}{\contentsline {section}{\numberline {3}PRELIMINARIES}{4}{section.3}\protected@file@percent }
\newlabel{velocity}{{1}{4}{PRELIMINARIES}{equation.3.1}{}}
\citation{tong2013hmm,khan2014x,lim2014fall}
\@writefile{toc}{\contentsline {section}{\numberline {4}SYSTEM DESIGN}{5}{section.4}\protected@file@percent }
\newlabel{sec:sys_des}{{4}{5}{SYSTEM DESIGN}{section.4}{}}
\@writefile{lof}{\contentsline {figure}{\numberline {2}{\ignorespaces The workflow of our fall detection system.\relax }}{6}{figure.caption.3}\protected@file@percent }
\newlabel{systemdesign}{{2}{6}{The workflow of our fall detection system.\relax }{figure.caption.3}{}}
\@writefile{lof}{\contentsline {figure}{\numberline {3}{\ignorespaces Noisy spectrogram.\relax }}{6}{figure.caption.4}\protected@file@percent }
\newlabel{Noisy}{{3}{6}{Noisy spectrogram.\relax }{figure.caption.4}{}}
\@writefile{lof}{\contentsline {figure}{\numberline {4}{\ignorespaces Denoised spectrogram.\relax }}{6}{figure.caption.4}\protected@file@percent }
\newlabel{Denoised}{{4}{6}{Denoised spectrogram.\relax }{figure.caption.4}{}}
\@writefile{toc}{\contentsline {subsection}{\numberline {4.1}Sensing}{6}{subsection.4.1}\protected@file@percent }
\@writefile{toc}{\contentsline {subsection}{\numberline {4.2}Interference Cancellation}{7}{subsection.4.2}\protected@file@percent }
\newlabel{interference}{{4.2}{7}{Interference Cancellation}{subsection.4.2}{}}
\@writefile{toc}{\contentsline {subsection}{\numberline {4.3}Duration Estimation}{7}{subsection.4.3}\protected@file@percent }
\citation{van2008feature}
\@writefile{lof}{\contentsline {figure}{\numberline {5}{\ignorespaces Motion curve caused by fall.\relax }}{8}{figure.caption.5}\protected@file@percent }
\newlabel{fallcurve}{{5}{8}{Motion curve caused by fall.\relax }{figure.caption.5}{}}
\@writefile{lof}{\contentsline {figure}{\numberline {6}{\ignorespaces Motion curve caused by sitting.\relax }}{8}{figure.caption.5}\protected@file@percent }
\newlabel{sitcurve}{{6}{8}{Motion curve caused by sitting.\relax }{figure.caption.5}{}}
\@writefile{toc}{\contentsline {subsection}{\numberline {4.4}Feature Extraction}{8}{subsection.4.4}\protected@file@percent }
\newlabel{feature_extraction}{{4.4}{8}{Feature Extraction}{subsection.4.4}{}}
\newlabel{percentile}{{6}{8}{Feature Extraction}{equation.4.6}{}}
\@writefile{toc}{\contentsline {subsection}{\numberline {4.5}SVD Decomposition}{9}{subsection.4.5}\protected@file@percent }
\citation{krishna1999genetic}
\citation{abdel2012applying,palaz2019end}
\citation{yang2017medical,pan2013heartbeat}
\newlabel{SVD}{{8}{10}{SVD Decomposition}{equation.4.8}{}}
\@writefile{toc}{\contentsline {subsection}{\numberline {4.6}Data Cluster}{10}{subsection.4.6}\protected@file@percent }
\citation{baggenstoss2001modified}
\@writefile{toc}{\contentsline {subsection}{\numberline {4.7}HMM}{11}{subsection.4.7}\protected@file@percent }
\newlabel{sec:HMM}{{4.7}{11}{HMM}{subsection.4.7}{}}
\@writefile{toc}{\contentsline {subsection}{\numberline {4.8}Classification}{11}{subsection.4.8}\protected@file@percent }
\@writefile{toc}{\contentsline {section}{\numberline {5}PERFORMANCE EVALUATION}{11}{section.5}\protected@file@percent }
\@writefile{toc}{\contentsline {subsection}{\numberline {5.1}Experiment Setup}{11}{subsection.5.1}\protected@file@percent }
\@writefile{lot}{\contentsline {table}{\numberline {1}{\ignorespaces Activities types\relax }}{12}{table.caption.6}\protected@file@percent }
\newlabel{Fall_types}{{1}{12}{Activities types\relax }{table.caption.6}{}}
\@writefile{toc}{\contentsline {subsection}{\numberline {5.2}Data collection}{12}{subsection.5.2}\protected@file@percent }
\@writefile{toc}{\contentsline {subsection}{\numberline {5.3}Evaluation Metrics}{12}{subsection.5.3}\protected@file@percent }
\@writefile{lof}{\contentsline {figure}{\numberline {7}{\ignorespaces Detection Range.\relax }}{13}{figure.caption.7}\protected@file@percent }
\newlabel{Distance}{{7}{13}{Detection Range.\relax }{figure.caption.7}{}}
\@writefile{lof}{\contentsline {figure}{\numberline {8}{\ignorespaces Impact of the environment.\relax }}{13}{figure.caption.8}\protected@file@percent }
\newlabel{env}{{8}{13}{Impact of the environment.\relax }{figure.caption.8}{}}
\@writefile{lof}{\contentsline {figure}{\numberline {9}{\ignorespaces Impact of the nloS.\relax }}{13}{figure.caption.8}\protected@file@percent }
\newlabel{_nloS}{{9}{13}{Impact of the nloS.\relax }{figure.caption.8}{}}
\@writefile{toc}{\contentsline {subsection}{\numberline {5.4}Effective Detection Range}{13}{subsection.5.4}\protected@file@percent }
\@writefile{toc}{\contentsline {subsection}{\numberline {5.5}Performance at Different Environments}{13}{subsection.5.5}\protected@file@percent }
\@writefile{lof}{\contentsline {figure}{\numberline {10}{\ignorespaces Impact at different time.\relax }}{14}{figure.caption.9}\protected@file@percent }
\newlabel{time}{{10}{14}{Impact at different time.\relax }{figure.caption.9}{}}
\@writefile{lof}{\contentsline {figure}{\numberline {11}{\ignorespaces Impact of the ambient sound.\relax }}{14}{figure.caption.9}\protected@file@percent }
\newlabel{_noise}{{11}{14}{Impact of the ambient sound.\relax }{figure.caption.9}{}}
\@writefile{lof}{\contentsline {figure}{\numberline {12}{\ignorespaces Impact of the devices.\relax }}{14}{figure.caption.9}\protected@file@percent }
\newlabel{devices}{{12}{14}{Impact of the devices.\relax }{figure.caption.9}{}}
\@writefile{toc}{\contentsline {subsection}{\numberline {5.6}Impact of Non-light of Sight (nLoS)}{14}{subsection.5.6}\protected@file@percent }
\newlabel{subsec:nlos}{{5.6}{14}{Impact of Non-light of Sight (nLoS)}{subsection.5.6}{}}
\@writefile{toc}{\contentsline {subsection}{\numberline {5.7}Impact of Time}{14}{subsection.5.7}\protected@file@percent }
\@writefile{toc}{\contentsline {subsection}{\numberline {5.8}Impact of Ambient Sound}{14}{subsection.5.8}\protected@file@percent }
\@writefile{toc}{\contentsline {subsection}{\numberline {5.9}Impact of Different Devices}{15}{subsection.5.9}\protected@file@percent }
\@writefile{toc}{\contentsline {section}{\numberline {6}Discussions}{15}{section.6}\protected@file@percent }
\bibstyle{ACM-Reference-Format}
\bibdata{ref}
\bibcite{abbate2012smartphone}{{1}{2012}{{Abbate et~al\unhbox \voidb@x \hbox {.}}}{{Abbate, Avvenuti, Bonatesta, Cola, Corsini, and Vecchio}}}
\bibcite{abdel2012applying}{{2}{2012}{{Abdel-Hamid et~al\unhbox \voidb@x \hbox {.}}}{{Abdel-Hamid, Mohamed, Jiang, and Penn}}}
\bibcite{altaf2015acoustic}{{3}{2015}{{Altaf et~al\unhbox \voidb@x \hbox {.}}}{{Altaf, Butko, and Juang}}}
\bibcite{amin2016radar}{{4}{2016}{{Amin et~al\unhbox \voidb@x \hbox {.}}}{{Amin, Zhang, Ahmad, and Ho}}}
\bibcite{baggenstoss2001modified}{{5}{2001}{{Baggenstoss}}{{Baggenstoss}}}
\bibcite{ballesteros2017review}{{6}{2017}{{Ballesteros et~al\unhbox \voidb@x \hbox {.}}}{{Ballesteros, Webb, and McClure}}}
\bibcite{bian2014fall}{{7}{2014}{{Bian et~al\unhbox \voidb@x \hbox {.}}}{{Bian, Hou, Chau, and Magnenat-Thalmann}}}
\bibcite{cao2012falld}{{8}{2012}{{Cao et~al\unhbox \voidb@x \hbox {.}}}{{Cao, Yang, and Liu}}}
\bibcite{chen2010indoor}{{9}{2010}{{Chen and Lin}}{{Chen and Lin}}}
\bibcite{gadde2014fall}{{10}{2014}{{Gadde et~al\unhbox \voidb@x \hbox {.}}}{{Gadde, Amin, Zhang, and Ahmad}}}
\bibcite{gupta2012soundwave}{{11}{2012}{{Gupta et~al\unhbox \voidb@x \hbox {.}}}{{Gupta, Morris, Patel, and Tan}}}
\bibcite{huang2014zigbee}{{12}{2014}{{Huang and Chan}}{{Huang and Chan}}}
\bibcite{khan2014x}{{13}{2014}{{Khan et~al\unhbox \voidb@x \hbox {.}}}{{Khan, Karg, Kuli{\'c}, and Hoey}}}
\bibcite{kianoush2016device}{{14}{2016}{{Kianoush et~al\unhbox \voidb@x \hbox {.}}}{{Kianoush, Savazzi, Vicentini, Rampa, and Giussani}}}
\bibcite{krishna1999genetic}{{15}{1999}{{Krishna and Murty}}{{Krishna and Murty}}}
\bibcite{kwolek2015improving}{{16}{2015}{{Kwolek and Kepski}}{{Kwolek and Kepski}}}
\bibcite{lee2005intelligent}{{17}{2005}{{Lee and Mihailidis}}{{Lee and Mihailidis}}}
\bibcite{li2012microphone}{{18}{2012}{{Li et~al\unhbox \voidb@x \hbox {.}}}{{Li, Ho, and Popescu}}}
\@writefile{toc}{\contentsline {section}{\numberline {7}CONCLUSION}{16}{section.7}\protected@file@percent }
\@writefile{toc}{\contentsline {section}{References}{16}{section*.11}\protected@file@percent }
\bibcite{lim2014fall}{{19}{2014}{{Lim et~al\unhbox \voidb@x \hbox {.}}}{{Lim, Park, Kim, Kim, and Yu}}}
\bibcite{mager2013fall}{{20}{2013}{{Mager et~al\unhbox \voidb@x \hbox {.}}}{{Mager, Patwari, and Bocca}}}
\bibcite{mao2016cat}{{21}{2016}{{Mao et~al\unhbox \voidb@x \hbox {.}}}{{Mao, He, and Qiu}}}
\bibcite{mao2019rnn}{{22}{2019}{{Mao et~al\unhbox \voidb@x \hbox {.}}}{{Mao, Wang, Sun, Qiu, Pradhan, and Chen}}}
\bibcite{nandakumar2016fingerio}{{23}{2016}{{Nandakumar et~al\unhbox \voidb@x \hbox {.}}}{{Nandakumar, Iyer, Tan, and Gollakota}}}
\bibcite{nandakumar2017covertband}{{24}{2017}{{Nandakumar et~al\unhbox \voidb@x \hbox {.}}}{{Nandakumar, Takakuwa, Kohno, and Gollakota}}}
\bibcite{palaz2019end}{{25}{2019}{{Palaz et~al\unhbox \voidb@x \hbox {.}}}{{Palaz, Magimai-Doss, and Collobert}}}
\bibcite{palipana2018falldefi}{{26}{2018}{{Palipana et~al\unhbox \voidb@x \hbox {.}}}{{Palipana, Rojas, Agrawal, and Pesch}}}
\bibcite{pan2013heartbeat}{{27}{2013}{{Pan et~al\unhbox \voidb@x \hbox {.}}}{{Pan, Wu, Kung, and Chen}}}
\bibcite{pierleoni2015high}{{28}{2015}{{Pierleoni et~al\unhbox \voidb@x \hbox {.}}}{{Pierleoni, Belli, Palma, Pellegrini, Pernini, and Valenti}}}
\bibcite{popescu2009acoustic}{{29}{2009}{{Popescu and Mahnot}}{{Popescu and Mahnot}}}
\bibcite{rivera2014radar}{{30}{2014}{{Rivera et~al\unhbox \voidb@x \hbox {.}}}{{Rivera, Ulmer, Zhang, Tao, and Amin}}}
\bibcite{ruan2016audiogest}{{31}{2016}{{Ruan et~al\unhbox \voidb@x \hbox {.}}}{{Ruan, Sheng, Yang, Gu, Xu, and Shangguan}}}
\bibcite{ruan2015tagfall}{{32}{2015}{{Ruan et~al\unhbox \voidb@x \hbox {.}}}{{Ruan, Yao, Sheng, Falkner, Li, and Gu}}}
\bibcite{shaukat2014daily}{{33}{2014}{{Shaukat et~al\unhbox \voidb@x \hbox {.}}}{{Shaukat, Ahsan, Hassan, and Riaz}}}
\bibcite{stone2014fall}{{34}{2014}{{Stone and Skubic}}{{Stone and Skubic}}}
\bibcite{sun2018vskin}{{35}{2018}{{Sun et~al\unhbox \voidb@x \hbox {.}}}{{Sun, Zhao, Wang, and Xie}}}
\bibcite{tian2018rf}{{36}{2018}{{Tian et~al\unhbox \voidb@x \hbox {.}}}{{Tian, Lee, He, Hsu, and Katabi}}}
\bibcite{tiwari2010mfcc}{{37}{2010}{{Tiwari}}{{Tiwari}}}
\bibcite{tong2013hmm}{{38}{2013}{{Tong et~al\unhbox \voidb@x \hbox {.}}}{{Tong, Song, Ge, and Liu}}}
\bibcite{van2008feature}{{39}{2008}{{Van~Dorp and Groen}}{{Van~Dorp and Groen}}}
\bibcite{wang2019millisonic}{{40}{2019}{{Wang and Gollakota}}{{Wang and Gollakota}}}
\bibcite{wang2016rt}{{41}{2016c}{{Wang et~al\unhbox \voidb@x \hbox {.}}}{{Wang, Zhang, Wang, Ma, Wang, and Li}}}
\bibcite{wang2016device}{{42}{2016a}{{Wang et~al\unhbox \voidb@x \hbox {.}}}{{Wang, Liu, and Sun}}}
\bibcite{wang2018gait}{{43}{2018}{{Wang et~al\unhbox \voidb@x \hbox {.}}}{{Wang, Chen, Bhuiyan, Han, Zhao, and Li}}}
\bibcite{wang2020push}{{44}{2020}{{Wang et~al\unhbox \voidb@x \hbox {.}}}{{Wang, Shen, and Zheng}}}
\bibcite{wang2016wifall}{{45}{2016b}{{Wang et~al\unhbox \voidb@x \hbox {.}}}{{Wang, Wu, and Ni}}}
\bibcite{xu2019acousticid}{{46}{2019}{{Xu et~al\unhbox \voidb@x \hbox {.}}}{{Xu, Yu, Wang, Guo, and Han}}}
\bibcite{yang2017medical}{{47}{2017}{{Yang et~al\unhbox \voidb@x \hbox {.}}}{{Yang, Zhou, Chen, Dong, Ahmed, Burd, and Marsic}}}
\bibcite{yun2015turning}{{48}{2015}{{Yun et~al\unhbox \voidb@x \hbox {.}}}{{Yun, Chen, and Qiu}}}
\bibcite{zhang2017soundtrak}{{49}{2017}{{Zhang et~al\unhbox \voidb@x \hbox {.}}}{{Zhang, Xue, Waghmare, Jain, Pu, Hersek, Lyons, Cunefare, Inan, and Abowd}}}
\bibcite{zhang2006fall}{{50}{2006}{{Zhang et~al\unhbox \voidb@x \hbox {.}}}{{Zhang, Wang, Liu, and Hou}}}
\newlabel{tocindent-1}{0pt}
\newlabel{tocindent0}{0pt}
\newlabel{tocindent1}{4.65pt}
\newlabel{tocindent2}{11.49998pt}
\newlabel{tocindent3}{0pt}
\newlabel{TotPages}{{18}{18}{}{page.18}{}}
