\relax 
\providecommand\hyper@newdestlabel[2]{}
\providecommand\HyperFirstAtBeginDocument{\AtBeginDocument}
\HyperFirstAtBeginDocument{\ifx\hyper@anchor\@undefined
\global\let\oldcontentsline\contentsline
\gdef\contentsline#1#2#3#4{\oldcontentsline{#1}{#2}{#3}}
\global\let\oldnewlabel\newlabel
\gdef\newlabel#1#2{\newlabelxx{#1}#2}
\gdef\newlabelxx#1#2#3#4#5#6{\oldnewlabel{#1}{{#2}{#3}}}
\AtEndDocument{\ifx\hyper@anchor\@undefined
\let\contentsline\oldcontentsline
\let\newlabel\oldnewlabel
\fi}
\fi}
\global\let\hyper@last\relax 
\gdef\HyperFirstAtBeginDocument#1{#1}
\providecommand\HyField@AuxAddToFields[1]{}
\providecommand\HyField@AuxAddToCoFields[2]{}
\citation{ballesteros2017review}
\citation{amin2016radar}
\citation{kwolek2015improving,pierleoni2015high}
\citation{chen2010indoor,ruan2015tagfall}
\citation{cao2012falld,abbate2012smartphone}
\citation{tian2018rf,palipana2018falldefi,wang2016wifall,wang2016rt}
\citation{gadde2014fall,rivera2014radar,amin2016radar}
\citation{lee2005intelligent,stone2014fall,bian2014fall}
\citation{li2012microphone,shaukat2014daily,popescu2009acoustic}
\citation{tiwari2010mfcc}
\citation{gadde2014fall,rivera2014radar,amin2016radar}
\@writefile{toc}{\contentsline {section}{Abstract}{1}{section*.1}}
\@writefile{toc}{\contentsline {section}{\numberline {1}Introduction}{1}{section.1}}
\citation{kwolek2015improving,pierleoni2015high}
\citation{cao2012falld,abbate2012smartphone}
\citation{chen2010indoor,ruan2015tagfall}
\citation{zhang2006fall}
\@writefile{toc}{\contentsline {section}{\numberline {2}RELATED WORK}{2}{section.2}}
\newlabel{sec:related}{{2}{2}{RELATED WORK}{section.2}{}}
\@writefile{toc}{\contentsline {subsection}{\numberline {2.1}Fall Detection}{2}{subsection.2.1}}
\citation{lee2005intelligent,stone2014fall,bian2014fall}
\citation{gadde2014fall,rivera2014radar,amin2016radar}
\citation{popescu2009acoustic,li2012microphone,shaukat2014daily}
\citation{mager2013fall,kianoush2016device,huang2014zigbee}
\citation{tian2018rf,palipana2018falldefi,wang2016wifall,wang2016rt}
\citation{wang2016wifall}
\citation{wang2016rt}
\citation{palipana2018falldefi}
\citation{yun2015turning,mao2016cat,zhang2017soundtrak,wang2019millisonic}
\citation{nandakumar2015contactless,nandakumar2019opioid,song2020spirosonic}
\citation{gupta2012soundwave,ruan2016audiogest,wang2020push}
\citation{nandakumar2016fingerio,wang2016device,sun2018vskin}
\citation{mao2019rnn}
\@writefile{toc}{\contentsline {subsection}{\numberline {2.2}Acoustic Sensing}{3}{subsection.2.2}}
\citation{nandakumar2017covertband}
\citation{xu2019acousticid,altaf2015acoustic,wang2018gait}
\providecommand*\caption@xref[2]{\@setref\relax\@undefined{#1}}
\newlabel{fall_s}{{1(a)}{4}{Subfigure 1(a)}{subfigure.1.1}{}}
\newlabel{sub@fall_s}{{(a)}{4}{Subfigure 1(a)\relax }{subfigure.1.1}{}}
\newlabel{sit_s}{{1(b)}{4}{Subfigure 1(b)}{subfigure.1.2}{}}
\newlabel{sub@sit_s}{{(b)}{4}{Subfigure 1(b)\relax }{subfigure.1.2}{}}
\newlabel{standup_s}{{1(c)}{4}{Subfigure 1(c)}{subfigure.1.3}{}}
\newlabel{sub@standup_s}{{(c)}{4}{Subfigure 1(c)\relax }{subfigure.1.3}{}}
\newlabel{jump_s}{{1(d)}{4}{Subfigure 1(d)}{subfigure.1.4}{}}
\newlabel{sub@jump_s}{{(d)}{4}{Subfigure 1(d)\relax }{subfigure.1.4}{}}
\@writefile{lof}{\contentsline {figure}{\numberline {1}{\ignorespaces Spectrogram of different activity\relax }}{4}{figure.caption.2}}
\newlabel{Spectrograms}{{1}{4}{Spectrogram of different activity\relax }{figure.caption.2}{}}
\@writefile{lof}{\contentsline {subfigure}{\numberline{(a)}{\ignorespaces {Fall}}}{4}{figure.caption.2}}
\@writefile{lof}{\contentsline {subfigure}{\numberline{(b)}{\ignorespaces {Sitting down}}}{4}{figure.caption.2}}
\@writefile{lof}{\contentsline {subfigure}{\numberline{(c)}{\ignorespaces {Standing up}}}{4}{figure.caption.2}}
\@writefile{lof}{\contentsline {subfigure}{\numberline{(d)}{\ignorespaces {Jumping}}}{4}{figure.caption.2}}
\@writefile{toc}{\contentsline {section}{\numberline {3}PRELIMINARIES}{4}{section.3}}
\citation{tong2013hmm,khan2014x,lim2014fall}
\newlabel{velocity}{{1}{5}{PRELIMINARIES}{equation.3.1}{}}
\@writefile{toc}{\contentsline {section}{\numberline {4}SYSTEM DESIGN}{5}{section.4}}
\newlabel{sec:sys_des}{{4}{5}{SYSTEM DESIGN}{section.4}{}}
\@writefile{lof}{\contentsline {figure}{\numberline {2}{\ignorespaces The workflow of our fall detection system.\relax }}{6}{figure.caption.3}}
\newlabel{systemdesign}{{2}{6}{The workflow of our fall detection system.\relax }{figure.caption.3}{}}
\@writefile{toc}{\contentsline {subsection}{\numberline {4.1}Sensing}{6}{subsection.4.1}}
\@writefile{toc}{\contentsline {subsection}{\numberline {4.2}Interference Cancellation}{6}{subsection.4.2}}
\newlabel{interference}{{4.2}{6}{Interference Cancellation}{subsection.4.2}{}}
\@writefile{lof}{\contentsline {figure}{\numberline {3}{\ignorespaces Noisy spectrogram.\relax }}{7}{figure.caption.4}}
\newlabel{Noisy}{{3}{7}{Noisy spectrogram.\relax }{figure.caption.4}{}}
\@writefile{lof}{\contentsline {figure}{\numberline {4}{\ignorespaces Denoised spectrogram.\relax }}{7}{figure.caption.4}}
\newlabel{Denoised}{{4}{7}{Denoised spectrogram.\relax }{figure.caption.4}{}}
\@writefile{toc}{\contentsline {subsection}{\numberline {4.3}Motion Locating}{7}{subsection.4.3}}
\citation{van2008feature}
\@writefile{lof}{\contentsline {figure}{\numberline {5}{\ignorespaces Motion curve caused by fall.\relax }}{8}{figure.caption.5}}
\newlabel{fallcurve}{{5}{8}{Motion curve caused by fall.\relax }{figure.caption.5}{}}
\@writefile{lof}{\contentsline {figure}{\numberline {6}{\ignorespaces Motion curve caused by sitting.\relax }}{8}{figure.caption.5}}
\newlabel{sitcurve}{{6}{8}{Motion curve caused by sitting.\relax }{figure.caption.5}{}}
\@writefile{toc}{\contentsline {subsection}{\numberline {4.4}Feature Extraction for Fall Detection}{8}{subsection.4.4}}
\newlabel{feature_extraction}{{4.4}{8}{Feature Extraction for Fall Detection}{subsection.4.4}{}}
\newlabel{percentile}{{6}{9}{Feature Extraction for Fall Detection}{equation.4.6}{}}
\citation{krishna1999genetic}
\@writefile{toc}{\contentsline {subsection}{\numberline {4.5}SVD Algorithm}{10}{subsection.4.5}}
\newlabel{SVD}{{8}{10}{SVD Algorithm}{equation.4.8}{}}
\citation{abdel2012applying,palaz2019end}
\citation{yang2017medical,pan2013heartbeat}
\citation{baggenstoss2001modified}
\@writefile{toc}{\contentsline {subsection}{\numberline {4.6}Data Cluster}{11}{subsection.4.6}}
\@writefile{toc}{\contentsline {subsection}{\numberline {4.7}HMM (Hidden Markov Model)}{11}{subsection.4.7}}
\newlabel{sec:HMM}{{4.7}{11}{HMM (Hidden Markov Model)}{subsection.4.7}{}}
\@writefile{toc}{\contentsline {subsection}{\numberline {4.8}Classification}{11}{subsection.4.8}}
\@writefile{toc}{\contentsline {section}{\numberline {5}PERFORMANCE EVALUATION}{11}{section.5}}
\citation{adam2021association}
\citation{volpato2012role}
\@writefile{lot}{\contentsline {table}{\numberline {1}{\ignorespaces Activities types\relax }}{12}{table.caption.6}}
\newlabel{Fall_types}{{1}{12}{Activities types\relax }{table.caption.6}{}}
\@writefile{toc}{\contentsline {subsection}{\numberline {5.1}Experiment Setup}{12}{subsection.5.1}}
\@writefile{toc}{\contentsline {subsection}{\numberline {5.2}Data Collection}{12}{subsection.5.2}}
\@writefile{lof}{\contentsline {figure}{\numberline {7}{\ignorespaces Detection Range.\relax }}{13}{figure.caption.7}}
\newlabel{Distance}{{7}{13}{Detection Range.\relax }{figure.caption.7}{}}
\@writefile{lof}{\contentsline {figure}{\numberline {8}{\ignorespaces Evaluation on Elders.\relax }}{13}{figure.caption.7}}
\newlabel{old}{{8}{13}{Evaluation on Elders.\relax }{figure.caption.7}{}}
\@writefile{toc}{\contentsline {subsection}{\numberline {5.3}Evaluation Metrics}{13}{subsection.5.3}}
\@writefile{toc}{\contentsline {subsection}{\numberline {5.4}Effective Detection Range}{13}{subsection.5.4}}
\@writefile{toc}{\contentsline {subsection}{\numberline {5.5}Performance on Elders}{13}{subsection.5.5}}
\@writefile{lof}{\contentsline {figure}{\numberline {9}{\ignorespaces Impact of different environments and different participants.\relax }}{14}{figure.caption.8}}
\newlabel{env}{{9}{14}{Impact of different environments and different participants.\relax }{figure.caption.8}{}}
\@writefile{lof}{\contentsline {figure}{\numberline {10}{\ignorespaces Impact of the nLoS.\relax }}{14}{figure.caption.8}}
\newlabel{_nloS}{{10}{14}{Impact of the nLoS.\relax }{figure.caption.8}{}}
\@writefile{lof}{\contentsline {figure}{\numberline {11}{\ignorespaces Evaluation of the non-fall activities.\relax }}{14}{figure.caption.8}}
\newlabel{non-fall}{{11}{14}{Evaluation of the non-fall activities.\relax }{figure.caption.8}{}}
\@writefile{toc}{\contentsline {subsection}{\numberline {5.6}Performance under Different Environments and Different People}{14}{subsection.5.6}}
\newlabel{baseline}{{5.6}{14}{Performance under Different Environments and Different People}{subsection.5.6}{}}
\@writefile{toc}{\contentsline {subsection}{\numberline {5.7}Impact of Non-Line of Sight (nLoS)}{14}{subsection.5.7}}
\newlabel{subsec:nlos}{{5.7}{14}{Impact of Non-Line of Sight (nLoS)}{subsection.5.7}{}}
\@writefile{lof}{\contentsline {figure}{\numberline {12}{\ignorespaces Impact of the ambient sound.\relax }}{15}{figure.caption.9}}
\newlabel{_noise}{{12}{15}{Impact of the ambient sound.\relax }{figure.caption.9}{}}
\@writefile{lof}{\contentsline {figure}{\numberline {13}{\ignorespaces Impact of the devices.\relax }}{15}{figure.caption.9}}
\newlabel{devices}{{13}{15}{Impact of the devices.\relax }{figure.caption.9}{}}
\@writefile{lof}{\contentsline {figure}{\numberline {14}{\ignorespaces Impact at different time.\relax }}{15}{figure.caption.9}}
\newlabel{time}{{14}{15}{Impact at different time.\relax }{figure.caption.9}{}}
\@writefile{toc}{\contentsline {subsection}{\numberline {5.8}Evaluation of Non-fall Activities}{15}{subsection.5.8}}
\@writefile{toc}{\contentsline {subsection}{\numberline {5.9}Impact of Time}{15}{subsection.5.9}}
\@writefile{toc}{\contentsline {subsection}{\numberline {5.10}Impact of Ambient Sound}{16}{subsection.5.10}}
\@writefile{toc}{\contentsline {subsection}{\numberline {5.11}Impact of Different Directions}{16}{subsection.5.11}}
\@writefile{toc}{\contentsline {subsection}{\numberline {5.12}Transferability of Our System}{16}{subsection.5.12}}
\@writefile{lof}{\contentsline {figure}{\numberline {15}{\ignorespaces Impact at different direction.\relax }}{17}{figure.caption.10}}
\newlabel{direction}{{15}{17}{Impact at different direction.\relax }{figure.caption.10}{}}
\@writefile{lof}{\contentsline {figure}{\numberline {16}{\ignorespaces Impact of the frequency.\relax }}{17}{figure.caption.10}}
\newlabel{frequency}{{16}{17}{Impact of the frequency.\relax }{figure.caption.10}{}}
\@writefile{lot}{\contentsline {table}{\numberline {2}{\ignorespaces Processing time\relax }}{17}{table.caption.11}}
\newlabel{Processing_time}{{2}{17}{Processing time\relax }{table.caption.11}{}}
\@writefile{toc}{\contentsline {subsection}{\numberline {5.13}Computational Cost}{17}{subsection.5.13}}
\@writefile{toc}{\contentsline {section}{\numberline {6}Discussions}{17}{section.6}}
\citation{wang2021using,wang2019contactless}
\citation{oohashi2000inaudible}
\citation{fletcher2018effects}
\citation{leighton2016some}
\citation{wixey2020feasibility}
\bibstyle{ACM-Reference-Format}
\bibdata{ref}
\bibcite{abbate2012smartphone}{{1}{2012}{{Abbate et~al\unhbox \voidb@x \hbox {.}}}{{Abbate, Avvenuti, Bonatesta, Cola, Corsini, and Vecchio}}}
\bibcite{abdel2012applying}{{2}{2012}{{Abdel-Hamid et~al\unhbox \voidb@x \hbox {.}}}{{Abdel-Hamid, Mohamed, Jiang, and Penn}}}
\bibcite{adam2021association}{{3}{2021}{{Adam et~al\unhbox \voidb@x \hbox {.}}}{{Adam, Fitzpatrick, Leary, Hajat, Phelan, Park, and Semmens}}}
\bibcite{altaf2015acoustic}{{4}{2015}{{Altaf et~al\unhbox \voidb@x \hbox {.}}}{{Altaf, Butko, and Juang}}}
\@writefile{toc}{\contentsline {section}{\numberline {7}CONCLUSION}{18}{section.7}}
\@writefile{toc}{\contentsline {section}{References}{18}{section*.13}}
\bibcite{amin2016radar}{{5}{2016}{{Amin et~al\unhbox \voidb@x \hbox {.}}}{{Amin, Zhang, Ahmad, and Ho}}}
\bibcite{baggenstoss2001modified}{{6}{2001}{{Baggenstoss}}{{Baggenstoss}}}
\bibcite{ballesteros2017review}{{7}{2017}{{Ballesteros et~al\unhbox \voidb@x \hbox {.}}}{{Ballesteros, Webb, and McClure}}}
\bibcite{bian2014fall}{{8}{2014}{{Bian et~al\unhbox \voidb@x \hbox {.}}}{{Bian, Hou, Chau, and Magnenat-Thalmann}}}
\bibcite{cao2012falld}{{9}{2012}{{Cao et~al\unhbox \voidb@x \hbox {.}}}{{Cao, Yang, and Liu}}}
\bibcite{chen2010indoor}{{10}{2010}{{Chen and Lin}}{{Chen and Lin}}}
\bibcite{fletcher2018effects}{{11}{2018}{{Fletcher et~al\unhbox \voidb@x \hbox {.}}}{{Fletcher, Lloyd~Jones, White, Dolder, Leighton, and Lineton}}}
\bibcite{gadde2014fall}{{12}{2014}{{Gadde et~al\unhbox \voidb@x \hbox {.}}}{{Gadde, Amin, Zhang, and Ahmad}}}
\bibcite{gupta2012soundwave}{{13}{2012}{{Gupta et~al\unhbox \voidb@x \hbox {.}}}{{Gupta, Morris, Patel, and Tan}}}
\bibcite{huang2014zigbee}{{14}{2014}{{Huang and Chan}}{{Huang and Chan}}}
\bibcite{khan2014x}{{15}{2014}{{Khan et~al\unhbox \voidb@x \hbox {.}}}{{Khan, Karg, Kuli{\'c}, and Hoey}}}
\bibcite{kianoush2016device}{{16}{2016}{{Kianoush et~al\unhbox \voidb@x \hbox {.}}}{{Kianoush, Savazzi, Vicentini, Rampa, and Giussani}}}
\bibcite{krishna1999genetic}{{17}{1999}{{Krishna and Murty}}{{Krishna and Murty}}}
\bibcite{kwolek2015improving}{{18}{2015}{{Kwolek and Kepski}}{{Kwolek and Kepski}}}
\bibcite{lee2005intelligent}{{19}{2005}{{Lee and Mihailidis}}{{Lee and Mihailidis}}}
\bibcite{leighton2016some}{{20}{2016}{{Leighton}}{{Leighton}}}
\bibcite{li2012microphone}{{21}{2012}{{Li et~al\unhbox \voidb@x \hbox {.}}}{{Li, Ho, and Popescu}}}
\bibcite{lim2014fall}{{22}{2014}{{Lim et~al\unhbox \voidb@x \hbox {.}}}{{Lim, Park, Kim, Kim, and Yu}}}
\bibcite{mager2013fall}{{23}{2013}{{Mager et~al\unhbox \voidb@x \hbox {.}}}{{Mager, Patwari, and Bocca}}}
\bibcite{mao2016cat}{{24}{2016}{{Mao et~al\unhbox \voidb@x \hbox {.}}}{{Mao, He, and Qiu}}}
\bibcite{mao2019rnn}{{25}{2019}{{Mao et~al\unhbox \voidb@x \hbox {.}}}{{Mao, Wang, Sun, Qiu, Pradhan, and Chen}}}
\bibcite{nandakumar2019opioid}{{26}{2019}{{Nandakumar et~al\unhbox \voidb@x \hbox {.}}}{{Nandakumar, Gollakota, and Sunshine}}}
\bibcite{nandakumar2015contactless}{{27}{2015}{{Nandakumar et~al\unhbox \voidb@x \hbox {.}}}{{Nandakumar, Gollakota, and Watson}}}
\bibcite{nandakumar2016fingerio}{{28}{2016}{{Nandakumar et~al\unhbox \voidb@x \hbox {.}}}{{Nandakumar, Iyer, Tan, and Gollakota}}}
\bibcite{nandakumar2017covertband}{{29}{2017}{{Nandakumar et~al\unhbox \voidb@x \hbox {.}}}{{Nandakumar, Takakuwa, Kohno, and Gollakota}}}
\bibcite{oohashi2000inaudible}{{30}{2000}{{Oohashi et~al\unhbox \voidb@x \hbox {.}}}{{Oohashi, Nishina, Honda, Yonekura, Fuwamoto, Kawai, Maekawa, Nakamura, Fukuyama, and Shibasaki}}}
\bibcite{palaz2019end}{{31}{2019}{{Palaz et~al\unhbox \voidb@x \hbox {.}}}{{Palaz, Magimai-Doss, and Collobert}}}
\bibcite{palipana2018falldefi}{{32}{2018}{{Palipana et~al\unhbox \voidb@x \hbox {.}}}{{Palipana, Rojas, Agrawal, and Pesch}}}
\bibcite{pan2013heartbeat}{{33}{2013}{{Pan et~al\unhbox \voidb@x \hbox {.}}}{{Pan, Wu, Kung, and Chen}}}
\bibcite{pierleoni2015high}{{34}{2015}{{Pierleoni et~al\unhbox \voidb@x \hbox {.}}}{{Pierleoni, Belli, Palma, Pellegrini, Pernini, and Valenti}}}
\bibcite{popescu2009acoustic}{{35}{2009}{{Popescu and Mahnot}}{{Popescu and Mahnot}}}
\bibcite{rivera2014radar}{{36}{2014}{{Rivera et~al\unhbox \voidb@x \hbox {.}}}{{Rivera, Ulmer, Zhang, Tao, and Amin}}}
\bibcite{ruan2016audiogest}{{37}{2016}{{Ruan et~al\unhbox \voidb@x \hbox {.}}}{{Ruan, Sheng, Yang, Gu, Xu, and Shangguan}}}
\bibcite{ruan2015tagfall}{{38}{2015}{{Ruan et~al\unhbox \voidb@x \hbox {.}}}{{Ruan, Yao, Sheng, Falkner, Li, and Gu}}}
\bibcite{shaukat2014daily}{{39}{2014}{{Shaukat et~al\unhbox \voidb@x \hbox {.}}}{{Shaukat, Ahsan, Hassan, and Riaz}}}
\bibcite{song2020spirosonic}{{40}{2020}{{Song et~al\unhbox \voidb@x \hbox {.}}}{{Song, Yang, Yang, Chen, Forno, Chen, and Gao}}}
\bibcite{stone2014fall}{{41}{2014}{{Stone and Skubic}}{{Stone and Skubic}}}
\bibcite{sun2018vskin}{{42}{2018}{{Sun et~al\unhbox \voidb@x \hbox {.}}}{{Sun, Zhao, Wang, and Xie}}}
\bibcite{tian2018rf}{{43}{2018}{{Tian et~al\unhbox \voidb@x \hbox {.}}}{{Tian, Lee, He, Hsu, and Katabi}}}
\bibcite{tiwari2010mfcc}{{44}{2010}{{Tiwari}}{{Tiwari}}}
\bibcite{tong2013hmm}{{45}{2013}{{Tong et~al\unhbox \voidb@x \hbox {.}}}{{Tong, Song, Ge, and Liu}}}
\bibcite{van2008feature}{{46}{2008}{{Van~Dorp and Groen}}{{Van~Dorp and Groen}}}
\bibcite{volpato2012role}{{47}{2012}{{Volpato et~al\unhbox \voidb@x \hbox {.}}}{{Volpato, Bianchi, Lauretani, Lauretani, Bandinelli, Guralnik, Zuliani, and Ferrucci}}}
\bibcite{wang2019millisonic}{{48}{2019}{{Wang and Gollakota}}{{Wang and Gollakota}}}
\bibcite{wang2021using}{{49}{2021}{{Wang et~al\unhbox \voidb@x \hbox {.}}}{{Wang, Nguyen, Sridhar, and Gollakota}}}
\bibcite{wang2019contactless}{{50}{2019}{{Wang et~al\unhbox \voidb@x \hbox {.}}}{{Wang, Sunshine, and Gollakota}}}
\bibcite{wang2016rt}{{51}{2016c}{{Wang et~al\unhbox \voidb@x \hbox {.}}}{{Wang, Zhang, Wang, Ma, Wang, and Li}}}
\bibcite{wang2016device}{{52}{2016a}{{Wang et~al\unhbox \voidb@x \hbox {.}}}{{Wang, Liu, and Sun}}}
\bibcite{wang2018gait}{{53}{2018}{{Wang et~al\unhbox \voidb@x \hbox {.}}}{{Wang, Chen, Bhuiyan, Han, Zhao, and Li}}}
\bibcite{wang2020push}{{54}{2020}{{Wang et~al\unhbox \voidb@x \hbox {.}}}{{Wang, Shen, and Zheng}}}
\bibcite{wang2016wifall}{{55}{2016b}{{Wang et~al\unhbox \voidb@x \hbox {.}}}{{Wang, Wu, and Ni}}}
\bibcite{wixey2020feasibility}{{56}{2020}{{Wixey et~al\unhbox \voidb@x \hbox {.}}}{{Wixey, De~Cristofaro, and Johnson}}}
\bibcite{xu2019acousticid}{{57}{2019}{{Xu et~al\unhbox \voidb@x \hbox {.}}}{{Xu, Yu, Wang, Guo, and Han}}}
\bibcite{yang2017medical}{{58}{2017}{{Yang et~al\unhbox \voidb@x \hbox {.}}}{{Yang, Zhou, Chen, Dong, Ahmed, Burd, and Marsic}}}
\bibcite{yun2015turning}{{59}{2015}{{Yun et~al\unhbox \voidb@x \hbox {.}}}{{Yun, Chen, and Qiu}}}
\bibcite{zhang2017soundtrak}{{60}{2017}{{Zhang et~al\unhbox \voidb@x \hbox {.}}}{{Zhang, Xue, Waghmare, Jain, Pu, Hersek, Lyons, Cunefare, Inan, and Abowd}}}
\bibcite{zhang2006fall}{{61}{2006}{{Zhang et~al\unhbox \voidb@x \hbox {.}}}{{Zhang, Wang, Liu, and Hou}}}
\newlabel{tocindent-1}{0pt}
\newlabel{tocindent0}{0pt}
\newlabel{tocindent1}{4.65pt}
\newlabel{tocindent2}{16.14998pt}
\newlabel{tocindent3}{0pt}
\newlabel{TotPages}{{21}{21}{}{page.21}{}}
